module bitbucket.org/asxce/nucleo

go 1.19

require (
	github.com/DATA-DOG/go-sqlmock v1.3.3
	github.com/go-ozzo/ozzo-validation/v4 v4.3.0
	github.com/go-sql-driver/mysql v1.4.1
	github.com/jmoiron/sqlx v1.2.0
	github.com/labstack/echo/v4 v4.1.6
	github.com/spf13/viper v1.4.0
	gopkg.in/yaml.v2 v2.2.2
)

require (
	github.com/fsnotify/fsnotify v1.4.7 // indirect
	github.com/hashicorp/hcl v1.0.0 // indirect
	github.com/labstack/gommon v0.2.9 // indirect
	github.com/magiconair/properties v1.8.0 // indirect
	github.com/mattn/go-colorable v0.1.2 // indirect
	github.com/mattn/go-isatty v0.0.8 // indirect
	github.com/mitchellh/mapstructure v1.1.2 // indirect
	github.com/pelletier/go-toml v1.2.0 // indirect
	github.com/spf13/afero v1.1.2 // indirect
	github.com/spf13/cast v1.3.0 // indirect
	github.com/spf13/jwalterweatherman v1.0.0 // indirect
	github.com/spf13/pflag v1.0.3 // indirect
	github.com/valyala/bytebufferpool v1.0.0 // indirect
	github.com/valyala/fasttemplate v1.0.1 // indirect
	golang.org/x/crypto v0.0.0-20190605123033-f99c8df09eb5 // indirect
	golang.org/x/net v0.0.0-20190607181551-461777fb6f67 // indirect
	golang.org/x/sys v0.0.0-20190609082536-301114b31cce // indirect
	golang.org/x/text v0.3.2 // indirect
	google.golang.org/appengine v1.1.0 // indirect
)
